pl\lodz\p\it\spjava\purchaseinvoicessystem\web\invoice\InvoiceController.class
pl\lodz\p\it\spjava\purchaseinvoicessystem\model\Article_.class
pl\lodz\p\it\spjava\purchaseinvoicessystem\interceptor\LoggingInterceptor.class
pl\lodz\p\it\spjava\purchaseinvoicessystem\web\account\ListAccountsPageBean.class
pl\lodz\p\it\spjava\purchaseinvoicessystem\dto\AccountDTO.class
pl\lodz\p\it\spjava\purchaseinvoicessystem\ejb\endpoint\ArticleEndpoint.class
pl\lodz\p\it\spjava\purchaseinvoicessystem\model\AccessLevel.class
pl\lodz\p\it\spjava\purchaseinvoicessystem\dto\InvoiceDTO.class
pl\lodz\p\it\spjava\purchaseinvoicessystem\model\Vendor_.class
pl\lodz\p\it\spjava\purchaseinvoicessystem\ejb\facade\EmployeeFacade.class
pl\lodz\p\it\spjava\purchaseinvoicessystem\ejb\facade\VendorFacade.class
pl\lodz\p\it\spjava\purchaseinvoicessystem\dto\EmployeeDTO.class
pl\lodz\p\it\spjava\purchaseinvoicessystem\model\Invoice.class
pl\lodz\p\it\spjava\purchaseinvoicessystem\web\invoice\ListInvoicePageBean.class
pl\lodz\p\it\spjava\purchaseinvoicessystem\utils\ContextUtils.class
pl\lodz\p\it\spjava\purchaseinvoicessystem\web\invoice\VendorController.class
pl\lodz\p\it\spjava\purchaseinvoicessystem\web\invoice\EditInvoicePageBean.class
pl\lodz\p\it\spjava\purchaseinvoicessystem\dto\VendorDTO.class
pl\lodz\p\it\spjava\purchaseinvoicessystem\ejb\endpoint\AccountEndpoint$1.class
pl\lodz\p\it\spjava\purchaseinvoicessystem\ejb\endpoint\InvoiceEndpoint.class
pl\lodz\p\it\spjava\purchaseinvoicessystem\model\Account.class
pl\lodz\p\it\spjava\purchaseinvoicessystem\model\InvoiceStatus.class
pl\lodz\p\it\spjava\purchaseinvoicessystem\model\Account_.class
pl\lodz\p\it\spjava\purchaseinvoicessystem\ejb\facade\AbstractFacade.class
pl\lodz\p\it\spjava\purchaseinvoicessystem\web\account\EditAccountPageBean.class
pl\lodz\p\it\spjava\purchaseinvoicessystem\exception\AccountException.class
pl\lodz\p\it\spjava\purchaseinvoicessystem\dto\ArticleDTO.class
pl\lodz\p\it\spjava\purchaseinvoicessystem\model\Employee.class
pl\lodz\p\it\spjava\purchaseinvoicessystem\model\Vendor.class
pl\lodz\p\it\spjava\purchaseinvoicessystem\model\Article.class
pl\lodz\p\it\spjava\purchaseinvoicessystem\ejb\facade\ArticleFacade.class
pl\lodz\p\it\spjava\purchaseinvoicessystem\web\account\AccountController.class
pl\lodz\p\it\spjava\purchaseinvoicessystem\ejb\endpoint\AccountEndpoint.class
pl\lodz\p\it\spjava\purchaseinvoicessystem\ejb\endpoint\AbstractEndpoint.class
pl\lodz\p\it\spjava\purchaseinvoicessystem\exception\ArticleException.class
pl\lodz\p\it\spjava\purchaseinvoicessystem\exception\BaseException.class
pl\lodz\p\it\spjava\purchaseinvoicessystem\web\account\CreateAccountPageBean.class
pl\lodz\p\it\spjava\purchaseinvoicessystem\ejb\facade\AccountFacade.class
pl\lodz\p\it\spjava\purchaseinvoicessystem\model\Employee_.class
pl\lodz\p\it\spjava\purchaseinvoicessystem\exception\InvoiceException.class
pl\lodz\p\it\spjava\purchaseinvoicessystem\ejb\facade\InvoiceFacade.class
pl\lodz\p\it\spjava\purchaseinvoicessystem\web\invoice\CreateInvoicePageBean.class
pl\lodz\p\it\spjava\purchaseinvoicessystem\model\Invoice_.class
